collaborator-analysis
…
lobster_traps <- read_csv("../data/Lobster_Trap_Counts_All_Years_20210519.csv")

Rows: 11071 Columns: 10
── Column specification ────────────────────────────────────────────────────────
Delimiter: ","
chr  (6): FISHING_SEASON, SITE, SEGMENT_START, SEGMENT_END, OBSERVER, NOTES
dbl  (3): YEAR, MONTH, TRAPS
date (1): DATE

ℹ Use `spec()` to retrieve the full column specification for this data.
ℹ Specify the column types or set `show_col_types = FALSE` to quiet this message.

lobster_traps

# A tibble: 11,071 × 10
    YEAR MONTH DATE       FISHING_SEASON SITE  SEGMENT_START SEGMENT_END TRAPS
   <dbl> <dbl> <date>     <chr>          <chr> <chr>         <chr>       <dbl>
 1  2012    10 2012-10-05 2012-2013      ABUR  119 44.950    119 44.900     16
 2  2012    10 2012-10-05 2012-2013      ABUR  119 44.900    119 44.850     13
 3  2012    10 2012-10-05 2012-2013      ABUR  119 44.850    119 44.800     21
 4  2012    10 2012-10-05 2012-2013      ABUR  119 44.800    119 44.750     10
 5  2012    10 2012-10-05 2012-2013      ABUR  119 44.750    119 44.700     10
 6  2012    10 2012-10-05 2012-2013      ABUR  119 44.700    119 44.650      6
 7  2012    10 2012-10-05 2012-2013      ABUR  119 44.650    119 44.600      2
 8  2012    10 2012-10-05 2012-2013      ABUR  119 44.600    119 44.550      0
 9  2012    10 2012-10-05 2012-2013      ABUR  119 44.550    119 44.500      5
10  2012    10 2012-10-05 2012-2013      ABUR  119 44.500    119 44.450      7
# ℹ 11,061 more rows
# ℹ 2 more variables: OBSERVER <chr>, NOTES <chr>

10.4 Converting missing values

lobster_traps <- lobster_traps %>%
  mutate(TRAPS = na_if(TRAPS, -99999))

unique(lobster_traps)

# A tibble: 11,071 × 10
    YEAR MONTH DATE       FISHING_SEASON SITE  SEGMENT_START SEGMENT_END TRAPS
   <dbl> <dbl> <date>     <chr>          <chr> <chr>         <chr>       <dbl>
 1  2012    10 2012-10-05 2012-2013      ABUR  119 44.950    119 44.900     16
 2  2012    10 2012-10-05 2012-2013      ABUR  119 44.900    119 44.850     13
 3  2012    10 2012-10-05 2012-2013      ABUR  119 44.850    119 44.800     21
 4  2012    10 2012-10-05 2012-2013      ABUR  119 44.800    119 44.750     10
 5  2012    10 2012-10-05 2012-2013      ABUR  119 44.750    119 44.700     10
 6  2012    10 2012-10-05 2012-2013      ABUR  119 44.700    119 44.650      6
 7  2012    10 2012-10-05 2012-2013      ABUR  119 44.650    119 44.600      2
 8  2012    10 2012-10-05 2012-2013      ABUR  119 44.600    119 44.550      0
 9  2012    10 2012-10-05 2012-2013      ABUR  119 44.550    119 44.500      5
10  2012    10 2012-10-05 2012-2013      ABUR  119 44.500    119 44.450      7
# ℹ 11,061 more rows
# ℹ 2 more variables: OBSERVER <chr>, NOTES <chr>

not_napl <- lobster_traps %>%
  filter(SITE != "NAPL")

not_napl

# A tibble: 10,422 × 10
    YEAR MONTH DATE       FISHING_SEASON SITE  SEGMENT_START SEGMENT_END TRAPS
   <dbl> <dbl> <date>     <chr>          <chr> <chr>         <chr>       <dbl>
 1  2012    10 2012-10-05 2012-2013      ABUR  119 44.950    119 44.900     16
 2  2012    10 2012-10-05 2012-2013      ABUR  119 44.900    119 44.850     13
 3  2012    10 2012-10-05 2012-2013      ABUR  119 44.850    119 44.800     21
 4  2012    10 2012-10-05 2012-2013      ABUR  119 44.800    119 44.750     10
 5  2012    10 2012-10-05 2012-2013      ABUR  119 44.750    119 44.700     10
 6  2012    10 2012-10-05 2012-2013      ABUR  119 44.700    119 44.650      6
 7  2012    10 2012-10-05 2012-2013      ABUR  119 44.650    119 44.600      2
 8  2012    10 2012-10-05 2012-2013      ABUR  119 44.600    119 44.550      0
 9  2012    10 2012-10-05 2012-2013      ABUR  119 44.550    119 44.500      5
10  2012    10 2012-10-05 2012-2013      ABUR  119 44.500    119 44.450      7
# ℹ 10,412 more rows
# ℹ 2 more variables: OBSERVER <chr>, NOTES <chr>
…
max(lobster_traps$TRAPS, na.rm = TRUE)

[1] 44

max_trap <- lobster_traps %>%
  filter(TRAPS != "NA") %>%
  group_by(SITE, MONTH) %>%
  summarise(MAX_TRAPS = max(TRAPS, na.rm = TRUE))

`summarise()` has grouped output by 'SITE'. You can override using the
`.groups` argument.

max_trap  

# A tibble: 55 × 3
# Groups:   SITE [10]
   SITE  MONTH MAX_TRAPS
   <chr> <dbl>     <dbl>
 1 ABUR      1         7
 2 ABUR      2         5
 3 ABUR      3         3
 4 ABUR     10        21
 5 ABUR     11        16
 6 ABUR     12         8
 7 AHND      1         2
 8 AHND      2         2
 9 AHND      3         3
10 AHND     10         6
# ℹ 45 more rows
…
lobster_traps_fishing_pressure <- lobster_traps %>%
  filter(YEAR == c("2019", "2020", "2021")) %>%
  mutate(FISHING_PRESSURE = if_else(TRAPS >= 8, "high", "low"))

Warning: There was 1 warning in `filter()`.
ℹ In argument: `YEAR == c("2019", "2020", "2021")`.
Caused by warning in `YEAR == c("2019", "2020", "2021")`:
! longer object length is not a multiple of shorter object length

lobster_traps_fishing_pressure

# A tibble: 1,006 × 11
    YEAR MONTH DATE       FISHING_SEASON SITE    SEGMENT_START SEGMENT_END TRAPS
   <dbl> <dbl> <date>     <chr>          <chr>   <chr>         <chr>       <dbl>
 1  2019     1 2019-01-23 2018-2019      AHND    120 08.900    120 08.850      0
 2  2019     1 2019-01-23 2018-2019      AHND    120 08.750    120 08.700      0
 3  2019     1 2019-01-23 2018-2019      AHND    120 08.600    120 08.550      0
 4  2019     1 2019-01-23 2018-2019      AHND    120 08.450    120 08.400      2
 5  2019     1 2019-01-23 2018-2019      AHND    120 08.300    120 08.250      1
 6  2019     1 2019-01-23 2018-2019      AHND t… 120 08.150    120 08.100      0
 7  2019     1 2019-01-23 2018-2019      AHND t… 120 08.000    120 07.950      0
 8  2019     1 2019-01-23 2018-2019      AQUE    120 07.850    120 07.800      1
 9  2019     1 2019-01-23 2018-2019      AQUE    120 07.700    120 07.650      1
10  2019     1 2019-01-23 2018-2019      AQUE    120 07.550    120 07.500      2
# ℹ 996 more rows
# ℹ 3 more variables: OBSERVER <chr>, NOTES <chr>, FISHING_PRESSURE <chr>
